Hlt1BBHighMult
   ODIN ((ODIN_BXTYP == LHCb.ODIN.BeamCrossing)):
      Beam1Gas:bb:
      Beam2Gas:bb:
      Physics:bb:
   L0DU (L0_CHANNEL('SPD') | L0_CHANNEL('CALO') | L0_CHANNEL('MUON')):
      CALO
      MUON
      SPD
Hlt1BBL0CALO
   ODIN ((ODIN_BXTYP == LHCb.ODIN.BeamCrossing)):
      Beam1Gas:bb:
      Beam2Gas:bb:
      Physics:bb:
   L0DU (L0_CHANNEL('CALO')):
      CALO
Hlt1BBL0MUON
   ODIN ((ODIN_BXTYP == LHCb.ODIN.BeamCrossing)):
      Beam1Gas:bb:
      Physics:bb:
   L0DU (L0_CHANNEL('MUON')):
      MUON
Hlt1BBL0PU
   ODIN ((ODIN_BXTYP == LHCb.ODIN.BeamCrossing)):
      Beam1Gas:bb:
      Beam2Gas:bb:
      Physics:bb:
   L0DU (L0_CHANNEL('PU')):
      PU
Hlt1BBL0SPD
   ODIN ((ODIN_BXTYP == LHCb.ODIN.BeamCrossing)):
      Beam1Gas:bb:
      Physics:bb:
   L0DU (L0_CHANNEL('SPD')):
      SPD
Hlt1BBL0SPDLowMult
   ODIN ((ODIN_BXTYP == LHCb.ODIN.BeamCrossing)):
      Beam1Gas:bb:
   L0DU (L0_CHANNEL('SPDLowMult')):
      SPDLowMult
Hlt1BBMicroBiasVelo
   ODIN ((ODIN_BXTYP == LHCb.ODIN.BeamCrossing)):
      Beam1Gas:bb:
      Beam2Gas:bb:
      Physics:bb:
   L0DU (L0_CHANNEL('SPD') | L0_CHANNEL('CALO') | L0_CHANNEL('MUON')):
      CALO
      MUON
      SPD
Hlt1BEHighMult
   ODIN ((ODIN_BXTYP == LHCb.ODIN.Beam1)):
      Beam1Gas:be:
      Beam2Gas:be:
      Physics:be:
   L0DU (L0_CHANNEL('SPDLowMult') | L0_CHANNEL('SPD') | L0_CHANNEL('CALO') | L0_CHANNEL('MUON')):
      CALO
      MUON
      SPD
      SPDLowMult
Hlt1BEL0CALO
   ODIN ((ODIN_BXTYP == LHCb.ODIN.Beam1)):
      Beam1Gas:be:
      Beam2Gas:be:
      Physics:be:
   L0DU (L0_CHANNEL('CALO')):
      CALO
Hlt1BEL0MUON
   ODIN ((ODIN_BXTYP == LHCb.ODIN.Beam1)):
      Beam1Gas:be:
      Physics:be:
   L0DU (L0_CHANNEL('MUON')):
      MUON
Hlt1BEL0PU
   ODIN ((ODIN_BXTYP == LHCb.ODIN.Beam1)):
      Beam1Gas:be:
      Beam2Gas:be:
      Physics:be:
   L0DU (L0_CHANNEL('PU')):
      PU
Hlt1BEL0SPD
   ODIN ((ODIN_BXTYP == LHCb.ODIN.Beam1)):
      Beam1Gas:be:
      Physics:be:
   L0DU (L0_CHANNEL('SPD')):
      SPD
Hlt1BEL0SPDLowMult
   ODIN ((ODIN_BXTYP == LHCb.ODIN.Beam1)):
      Beam1Gas:be:
   L0DU (L0_CHANNEL('SPDLowMult')):
      SPDLowMult
Hlt1BEMicroBiasLowMultVelo
   ODIN ((ODIN_BXTYP == LHCb.ODIN.Beam1)):
      Beam1Gas:be:
      Beam2Gas:be:
      Physics:be:
   L0DU (L0_CHANNEL('SPDLowMult') | L0_CHANNEL('SPD') | L0_CHANNEL('CALO') | L0_CHANNEL('MUON')):
      CALO
      MUON
      SPD
      SPDLowMult
Hlt1BEMicroBiasVelo
   ODIN ((ODIN_BXTYP == LHCb.ODIN.Beam1)):
      Beam1Gas:be:
      Beam2Gas:be:
      Physics:be:
   L0DU (L0_CHANNEL('SPDLowMult') | L0_CHANNEL('SPD') | L0_CHANNEL('CALO') | L0_CHANNEL('MUON')):
      CALO
      MUON
      SPD
      SPDLowMult
Hlt1BeamGasBeam1
   ODIN ((ODIN_BXTYP == LHCb.ODIN.Beam1)):
      Beam1Gas:be:
      Beam2Gas:be:
      Physics:be:
   L0DU (L0_CHANNEL('PU') | L0_CHANNEL('CALO')):
      CALO
      PU
Hlt1BeamGasBeam2
   ODIN ((ODIN_BXTYP == LHCb.ODIN.Beam2)):
      Beam1Gas:eb:
      Beam2Gas:eb:
      Physics:eb:
   L0DU (L0_CHANNEL('PU') | L0_CHANNEL('CALO')):
      CALO
      PU
Hlt1BeamGasCrossingForcedReco
   ODIN ((ODIN_BXTYP == LHCb.ODIN.BeamCrossing)):
      Beam1Gas:bb:
      Beam2Gas:bb:
      Physics:bb:
   L0DU (L0_CHANNEL('PU') | L0_CHANNEL('CALO')):
      CALO
      PU
Hlt1BeamGasCrossingForcedRecoFullZ
   ODIN ((ODIN_BXTYP == LHCb.ODIN.BeamCrossing)):
      Beam1Gas:bb:
      Beam2Gas:bb:
      Physics:bb:
   L0DU (L0_CHANNEL('PU') | L0_CHANNEL('CALO')):
      CALO
      PU
Hlt1BeamGasNoBeamBeam1
   ODIN ((ODIN_BXTYP == LHCb.ODIN.NoBeam)):
      Beam1Gas:ee:
      Beam2Gas:ee:
      Physics:ee:
   L0DU (L0_CHANNEL('PU') | L0_CHANNEL('CALO')):
      CALO
      PU
Hlt1BeamGasNoBeamBeam2
   ODIN ((ODIN_BXTYP == LHCb.ODIN.NoBeam)):
      Beam1Gas:ee:
      Beam2Gas:ee:
      Physics:ee:
   L0DU (L0_CHANNEL('PU') | L0_CHANNEL('CALO')):
      CALO
      PU
Hlt1CalibHighPTLowMultTrks
   ODIN (ODIN_BXTYP == LHCb.ODIN.BeamCrossing):
      Beam1Gas:bb:
      Beam2Gas:bb:
      Physics:bb:
   L0DU (L0_CHANNEL('SPD') | L0_CHANNEL('CALO') | L0_CHANNEL('MUON')):
      CALO
      MUON
      SPD
Hlt1CalibMuonAlignJpsi
   ODIN (ODIN_BXTYP == LHCb.ODIN.BeamCrossing):
      Beam1Gas:bb:
      Physics:bb:
   L0DU (L0_CHANNEL('MUON')):
      MUON
Hlt1CalibRICHMirrorRICH1
   ODIN (ODIN_BXTYP == LHCb.ODIN.BeamCrossing):
      Beam1Gas:bb:
      Beam2Gas:bb:
      Physics:bb:
   L0DU (L0_CHANNEL('SPD') | L0_CHANNEL('CALO') | L0_CHANNEL('MUON')):
      CALO
      MUON
      SPD
Hlt1CalibRICHMirrorRICH2
   ODIN (ODIN_BXTYP == LHCb.ODIN.BeamCrossing):
      Beam1Gas:bb:
      Beam2Gas:bb:
      Physics:bb:
   L0DU (L0_CHANNEL('SPD') | L0_CHANNEL('CALO') | L0_CHANNEL('MUON')):
      CALO
      MUON
      SPD
Hlt1CalibTrackingKK
   ODIN (ODIN_BXTYP == LHCb.ODIN.BeamCrossing):
      Beam1Gas:bb:
      Beam2Gas:bb:
      Physics:bb:
   L0DU (L0_CHANNEL('SPD') | L0_CHANNEL('CALO') | L0_CHANNEL('MUON')):
      CALO
      MUON
      SPD
Hlt1CalibTrackingKPi
   ODIN (ODIN_BXTYP == LHCb.ODIN.BeamCrossing):
      Beam1Gas:bb:
      Beam2Gas:bb:
      Physics:bb:
   L0DU (L0_CHANNEL('SPD') | L0_CHANNEL('CALO') | L0_CHANNEL('MUON')):
      CALO
      MUON
      SPD
Hlt1CalibTrackingKPiDetached
   ODIN (ODIN_BXTYP == LHCb.ODIN.BeamCrossing):
      Beam1Gas:bb:
      Beam2Gas:bb:
      Physics:bb:
   L0DU (L0_CHANNEL('SPD') | L0_CHANNEL('CALO') | L0_CHANNEL('MUON')):
      CALO
      MUON
      SPD
Hlt1CalibTrackingPiPi
   ODIN (ODIN_BXTYP == LHCb.ODIN.BeamCrossing):
      Beam1Gas:bb:
      Beam2Gas:bb:
      Physics:bb:
   L0DU (L0_CHANNEL('SPD') | L0_CHANNEL('CALO') | L0_CHANNEL('MUON')):
      CALO
      MUON
      SPD
Hlt1DiMuonHighMass
   ODIN (ODIN_BXTYP == LHCb.ODIN.BeamCrossing):
      Beam1Gas:bb:
      Physics:bb:
   L0DU (L0_CHANNEL('MUON')):
      MUON
Hlt1DiMuonHighMassBE
   ODIN (ODIN_BXTYP == LHCb.ODIN.Beam1):
      Beam1Gas:be:
      Physics:be:
   L0DU (L0_CHANNEL('MUON')):
      MUON
Hlt1ErrorEvent
Hlt1Global
Hlt1Lumi
   ODIN (( ODIN_TRGTYP == LHCb.ODIN.LumiTrigger ) ):
Hlt1LumiLowBeam1
   ODIN ( ( ODIN_BXTYP == LHCb.ODIN.Beam1 ) ):
      Beam1Gas:be:
      Beam2Gas:be:
      Physics:be:
   L0DU ( ( L0_CHANNEL('CALO') ) ):
      CALO
Hlt1LumiLowBeam2
   ODIN ( ( ODIN_BXTYP == LHCb.ODIN.Beam2 ) ):
      Beam1Gas:eb:
      Beam2Gas:eb:
      Physics:eb:
   L0DU ( ( L0_CHANNEL('CALO') ) ):
      CALO
Hlt1LumiLowBeamCrossing
   ODIN ( ( ODIN_BXTYP == LHCb.ODIN.BeamCrossing ) ):
      Beam1Gas:bb:
      Beam2Gas:bb:
      Physics:bb:
   L0DU ( ( L0_CHANNEL('CALO') ) ):
      CALO
Hlt1LumiLowNoBeam
   ODIN ( ( ODIN_BXTYP == LHCb.ODIN.NoBeam ) ):
      Beam1Gas:ee:
      Beam2Gas:ee:
      Physics:ee:
   L0DU ( ( L0_CHANNEL('CALO') ) ):
      CALO
Hlt1NoBiasNonBeamBeam
   ODIN (( (ODIN_TRGTYP == LHCb.ODIN.LumiTrigger) & ~(ODIN_BXTYP == LHCb.ODIN.BeamCrossing) )):
Hlt1ODINTechnical
   ODIN (( ODIN_TRGTYP == LHCb.ODIN.TechnicalTrigger )):
Hlt1SMOGGeneric
   ODIN ((ODIN_BXTYP == LHCb.ODIN.Beam1)):
      Beam1Gas:be:
      Beam2Gas:be:
      Physics:be:
   L0DU (L0_CHANNEL('SPDLowMult') | L0_CHANNEL('SPD') | L0_CHANNEL('CALO') | L0_CHANNEL('MUON')):
      CALO
      MUON
      SPD
      SPDLowMult
Hlt1SMOGKKPi
   ODIN ((ODIN_BXTYP == LHCb.ODIN.Beam1)):
      Beam1Gas:be:
      Beam2Gas:be:
      Physics:be:
   L0DU (L0_CHANNEL('SPDLowMult') | L0_CHANNEL('SPD') | L0_CHANNEL('CALO') | L0_CHANNEL('MUON')):
      CALO
      MUON
      SPD
      SPDLowMult
Hlt1SMOGKPi
   ODIN ((ODIN_BXTYP == LHCb.ODIN.Beam1)):
      Beam1Gas:be:
      Beam2Gas:be:
      Physics:be:
   L0DU (L0_CHANNEL('SPDLowMult') | L0_CHANNEL('SPD') | L0_CHANNEL('CALO') | L0_CHANNEL('MUON')):
      CALO
      MUON
      SPD
      SPDLowMult
Hlt1SMOGKPiPi
   ODIN ((ODIN_BXTYP == LHCb.ODIN.Beam1)):
      Beam1Gas:be:
      Beam2Gas:be:
      Physics:be:
   L0DU (L0_CHANNEL('SPDLowMult') | L0_CHANNEL('SPD') | L0_CHANNEL('CALO') | L0_CHANNEL('MUON')):
      CALO
      MUON
      SPD
      SPDLowMult
Hlt1SMOGSingleTrack
   ODIN ((ODIN_BXTYP == LHCb.ODIN.Beam1)):
      Beam1Gas:be:
      Beam2Gas:be:
      Physics:be:
   L0DU (L0_CHANNEL('SPDLowMult') | L0_CHANNEL('SPD') | L0_CHANNEL('CALO') | L0_CHANNEL('MUON')):
      CALO
      MUON
      SPD
      SPDLowMult
Hlt1SMOGpKPi
   ODIN ((ODIN_BXTYP == LHCb.ODIN.Beam1)):
      Beam1Gas:be:
      Beam2Gas:be:
      Physics:be:
   L0DU (L0_CHANNEL('SPDLowMult') | L0_CHANNEL('SPD') | L0_CHANNEL('CALO') | L0_CHANNEL('MUON')):
      CALO
      MUON
      SPD
      SPDLowMult
Hlt1Tell1Error
Hlt1VeloClosingMicroBias
   ODIN (( ODIN_BXTYP == LHCb.ODIN.BeamCrossing )):
      Beam1Gas:bb:
      Beam2Gas:bb:
      Lumi:bb:
      NoBias:bb:
      Physics:bb:
      SequencerTrigger:bb:
Hlt2BBPassThrough
   HLT1 (HLT_PASS_RE('^Hlt1BB.*Decision$') | HLT_PASS('Hlt1DiMuonHighMassDecision')):
      Hlt1BBHighMult
      Hlt1BBL0CALO
      Hlt1BBL0MUON
      Hlt1BBL0PU
      Hlt1BBL0SPD
      Hlt1BBL0SPDLowMult
      Hlt1BBMicroBiasVelo
      Hlt1DiMuonHighMass
Hlt2BEHighMultPassThrough
   HLT1 (HLT_PASS('Hlt1BEHighMultDecision')):
      Hlt1BEHighMult
Hlt2BEL0PassThrough
   HLT1 (HLT_PASS_RE('^Hlt1BEL0.*Decision$')):
      Hlt1BEL0CALO
      Hlt1BEL0MUON
      Hlt1BEL0PU
      Hlt1BEL0SPD
      Hlt1BEL0SPDLowMult
Hlt2BELowMultVeloPassThrough
   HLT1 (HLT_PASS('Hlt1BEMicroBiasLowMultVeloDecision')):
      Hlt1BEMicroBiasLowMultVelo
Hlt2BEMicroBiasVeloPassThrough
   HLT1 (HLT_PASS('Hlt1BEMicroBiasVeloDecision')):
      Hlt1BEMicroBiasVelo
Hlt2BESelectVeloMultPassThrough
   HLT1 (HLT_PASS('Hlt1BEHighMultDecision')):
      Hlt1BEHighMult
Hlt2BeamGasPassThrough
   HLT1 (HLT_PASS_RE('^Hlt1BeamGas(?!HighMult).*Decision$')):
      Hlt1BeamGasBeam1
      Hlt1BeamGasBeam2
      Hlt1BeamGasCrossingForcedReco
      Hlt1BeamGasCrossingForcedRecoFullZ
      Hlt1BeamGasNoBeamBeam1
      Hlt1BeamGasNoBeamBeam2
Hlt2DiMuonPassThrough
   HLT1 (HLT_PASS_RE('^Hlt1DiMuon.*BEDecision$')):
      Hlt1DiMuonHighMassBE
Hlt2Global
   HLT2 (HLT_PASS_SUBSTR('Hlt2')):
      Hlt2BBPassThrough
      Hlt2BEHighMultPassThrough
      Hlt2BEL0PassThrough
      Hlt2BELowMultVeloPassThrough
      Hlt2BEMicroBiasVeloPassThrough
      Hlt2BESelectVeloMultPassThrough
      Hlt2BeamGasPassThrough
      Hlt2DiMuonPassThrough
      Hlt2Global
      Hlt2Lumi
      Hlt2LumiLowBeam1
      Hlt2LumiLowBeam1Prescaled
      Hlt2LumiLowBeam2
      Hlt2LumiLowBeamCrossing
      Hlt2LumiLowNoBeam
      Hlt2LumiRandom
      Hlt2NoBiasNonBeamBeam
      Hlt2PIDB2KJPsiEENegTagged
      Hlt2PIDB2KJPsiEEPosTagged
      Hlt2PIDB2KJPsiMuMuNegTagged
      Hlt2PIDB2KJPsiMuMuPosTagged
      Hlt2PIDB2KJPsiPPNegTagged
      Hlt2PIDB2KJPsiPPPosTagged
      Hlt2PIDD02KPiPiPi
      Hlt2PIDD02KPiPiPiTag
      Hlt2PIDD02KPiTag
      Hlt2PIDDetJPsiEENegTagged
      Hlt2PIDDetJPsiEEPosTagged
      Hlt2PIDDetJPsiMuMuNegTagged
      Hlt2PIDDetJPsiMuMuPosTagged
      Hlt2PIDDetJPsiPPNegTagged
      Hlt2PIDDetJPsiPPPosTagged
      Hlt2PIDDetPhiKKNegTagged
      Hlt2PIDDetPhiKKPosTagged
      Hlt2PIDDetPhiKKUnbiased
      Hlt2PIDDetPhiMuMuNegTagged
      Hlt2PIDDetPhiMuMuPosTagged
      Hlt2PIDDs2PiPhiKKNegTagged
      Hlt2PIDDs2PiPhiKKPosTagged
      Hlt2PIDDs2PiPhiKKUnbiased
      Hlt2PIDDs2PiPhiMuMuNegTagged
      Hlt2PIDDs2PiPhiMuMuPosTagged
      Hlt2PIDKs2PiPiLL
      Hlt2PIDLambda2PPiLL
      Hlt2PIDLambda2PPiLLhighPT
      Hlt2PIDLambda2PPiLLisMuon
      Hlt2PIDLambda2PPiLLveryhighPT
      Hlt2PIDLb2LcMuNu
      Hlt2PIDLb2LcPi
      Hlt2PIDSc02LcPi
      Hlt2PIDScpp2LcPi
      Hlt2SMOGB2PiMu
      Hlt2SMOGD02KPi
      Hlt2SMOGDpm2KPiPi
      Hlt2SMOGDs2KKPi
      Hlt2SMOGLc2KPPi
      Hlt2TrackEffDiMuonDownstreamMinusMatchedFullstream
      Hlt2TrackEffDiMuonDownstreamMinusTaggedFullstream
      Hlt2TrackEffDiMuonDownstreamPlusMatchedFullstream
      Hlt2TrackEffDiMuonDownstreamPlusTaggedFullstream
      Hlt2TrackEffDiMuonMuonTTMinusMatchedFullstream
      Hlt2TrackEffDiMuonMuonTTMinusTaggedFullstream
      Hlt2TrackEffDiMuonMuonTTPlusMatchedFullstream
      Hlt2TrackEffDiMuonMuonTTPlusTaggedFullstream
      Hlt2TrackEffDiMuonVeloMuonMinusMatchedFullstream
      Hlt2TrackEffDiMuonVeloMuonMinusTaggedFullstream
      Hlt2TrackEffDiMuonVeloMuonPlusMatchedFullstream
      Hlt2TrackEffDiMuonVeloMuonPlusTaggedFullstream
      Hlt2Transparent
Hlt2Lumi
   HLT1 (HLT_PASS_SUBSTR('Hlt1Lumi')):
      Hlt1Lumi
      Hlt1LumiLowBeam1
      Hlt1LumiLowBeam2
      Hlt1LumiLowBeamCrossing
      Hlt1LumiLowNoBeam
Hlt2LumiLowBeam1
   HLT1 (HLT_PASS('Hlt1LumiLowBeam1Decision')):
      Hlt1LumiLowBeam1
Hlt2LumiLowBeam1Prescaled
   HLT1 (HLT_PASS('Hlt1LumiLowBeam1Decision')):
      Hlt1LumiLowBeam1
Hlt2LumiLowBeam2
   HLT1 (HLT_PASS('Hlt1LumiLowBeam2Decision')):
      Hlt1LumiLowBeam2
Hlt2LumiLowBeamCrossing
   HLT1 (HLT_PASS('Hlt1LumiLowBeamCrossingDecision')):
      Hlt1LumiLowBeamCrossing
Hlt2LumiLowNoBeam
   HLT1 (HLT_PASS('Hlt1LumiLowNoBeamDecision')):
      Hlt1LumiLowNoBeam
Hlt2LumiRandom
   HLT1 (HLT_PASS('Hlt1LumiDecision')):
      Hlt1Lumi
Hlt2NoBiasNonBeamBeam
   HLT1 (HLT_PASS_RE('Hlt1NoBiasNonBeamBeamDecision')):
      Hlt1NoBiasNonBeamBeam
Hlt2PIDB2KJPsiEENegTagged
   L0DU (L0_ALL):
      CALO
      MUON
      PU
      SPD
      SPDLowMult
   HLT1 (HLT_PASS_RE('Hlt1SMOG.*Decision') | HLT_PASS('Hlt1BEMicroBiasVeloDecision') ):
      Hlt1BEMicroBiasVelo
      Hlt1SMOGGeneric
      Hlt1SMOGKKPi
      Hlt1SMOGKPi
      Hlt1SMOGKPiPi
      Hlt1SMOGSingleTrack
      Hlt1SMOGpKPi
Hlt2PIDB2KJPsiEEPosTagged
   L0DU (L0_ALL):
      CALO
      MUON
      PU
      SPD
      SPDLowMult
   HLT1 (HLT_PASS_RE('Hlt1SMOG.*Decision') | HLT_PASS('Hlt1BEMicroBiasVeloDecision') ):
      Hlt1BEMicroBiasVelo
      Hlt1SMOGGeneric
      Hlt1SMOGKKPi
      Hlt1SMOGKPi
      Hlt1SMOGKPiPi
      Hlt1SMOGSingleTrack
      Hlt1SMOGpKPi
Hlt2PIDB2KJPsiMuMuNegTagged
   L0DU (L0_ALL):
      CALO
      MUON
      PU
      SPD
      SPDLowMult
   HLT1 (HLT_PASS_RE('Hlt1SMOG.*Decision') | HLT_PASS('Hlt1BEMicroBiasVeloDecision') ):
      Hlt1BEMicroBiasVelo
      Hlt1SMOGGeneric
      Hlt1SMOGKKPi
      Hlt1SMOGKPi
      Hlt1SMOGKPiPi
      Hlt1SMOGSingleTrack
      Hlt1SMOGpKPi
Hlt2PIDB2KJPsiMuMuPosTagged
   L0DU (L0_ALL):
      CALO
      MUON
      PU
      SPD
      SPDLowMult
   HLT1 (HLT_PASS_RE('Hlt1SMOG.*Decision') | HLT_PASS('Hlt1BEMicroBiasVeloDecision') ):
      Hlt1BEMicroBiasVelo
      Hlt1SMOGGeneric
      Hlt1SMOGKKPi
      Hlt1SMOGKPi
      Hlt1SMOGKPiPi
      Hlt1SMOGSingleTrack
      Hlt1SMOGpKPi
Hlt2PIDB2KJPsiPPNegTagged
   HLT1 (HLT_PASS_RE('Hlt1SMOG.*Decision') | HLT_PASS('Hlt1BEMicroBiasVeloDecision') ):
      Hlt1BEMicroBiasVelo
      Hlt1SMOGGeneric
      Hlt1SMOGKKPi
      Hlt1SMOGKPi
      Hlt1SMOGKPiPi
      Hlt1SMOGSingleTrack
      Hlt1SMOGpKPi
Hlt2PIDB2KJPsiPPPosTagged
   HLT1 (HLT_PASS_RE('Hlt1SMOG.*Decision') | HLT_PASS('Hlt1BEMicroBiasVeloDecision') ):
      Hlt1BEMicroBiasVelo
      Hlt1SMOGGeneric
      Hlt1SMOGKKPi
      Hlt1SMOGKPi
      Hlt1SMOGKPiPi
      Hlt1SMOGSingleTrack
      Hlt1SMOGpKPi
Hlt2PIDD02KPiPiPi
   HLT1 (HLT_PASS_RE('Hlt1SMOG.*Decision') | HLT_PASS('Hlt1BEMicroBiasVeloDecision') ):
      Hlt1BEMicroBiasVelo
      Hlt1SMOGGeneric
      Hlt1SMOGKKPi
      Hlt1SMOGKPi
      Hlt1SMOGKPiPi
      Hlt1SMOGSingleTrack
      Hlt1SMOGpKPi
Hlt2PIDD02KPiPiPiTag
   HLT1 (HLT_PASS_RE('Hlt1SMOG.*Decision') | HLT_PASS('Hlt1BEMicroBiasVeloDecision') ):
      Hlt1BEMicroBiasVelo
      Hlt1SMOGGeneric
      Hlt1SMOGKKPi
      Hlt1SMOGKPi
      Hlt1SMOGKPiPi
      Hlt1SMOGSingleTrack
      Hlt1SMOGpKPi
Hlt2PIDD02KPiTag
   HLT1 (HLT_PASS_RE('Hlt1SMOG.*Decision') | HLT_PASS('Hlt1BEMicroBiasVeloDecision') ):
      Hlt1BEMicroBiasVelo
      Hlt1SMOGGeneric
      Hlt1SMOGKKPi
      Hlt1SMOGKPi
      Hlt1SMOGKPiPi
      Hlt1SMOGSingleTrack
      Hlt1SMOGpKPi
Hlt2PIDDetJPsiEENegTagged
   L0DU (L0_ALL):
      CALO
      MUON
      PU
      SPD
      SPDLowMult
   HLT1 (HLT_PASS_RE('Hlt1SMOG.*Decision') | HLT_PASS('Hlt1BEMicroBiasVeloDecision') ):
      Hlt1BEMicroBiasVelo
      Hlt1SMOGGeneric
      Hlt1SMOGKKPi
      Hlt1SMOGKPi
      Hlt1SMOGKPiPi
      Hlt1SMOGSingleTrack
      Hlt1SMOGpKPi
Hlt2PIDDetJPsiEEPosTagged
   L0DU (L0_ALL):
      CALO
      MUON
      PU
      SPD
      SPDLowMult
   HLT1 (HLT_PASS_RE('Hlt1SMOG.*Decision') | HLT_PASS('Hlt1BEMicroBiasVeloDecision') ):
      Hlt1BEMicroBiasVelo
      Hlt1SMOGGeneric
      Hlt1SMOGKKPi
      Hlt1SMOGKPi
      Hlt1SMOGKPiPi
      Hlt1SMOGSingleTrack
      Hlt1SMOGpKPi
Hlt2PIDDetJPsiMuMuNegTagged
   L0DU (L0_ALL):
      CALO
      MUON
      PU
      SPD
      SPDLowMult
   HLT1 (HLT_PASS_RE('Hlt1SMOG.*Decision') | HLT_PASS('Hlt1BEMicroBiasVeloDecision') ):
      Hlt1BEMicroBiasVelo
      Hlt1SMOGGeneric
      Hlt1SMOGKKPi
      Hlt1SMOGKPi
      Hlt1SMOGKPiPi
      Hlt1SMOGSingleTrack
      Hlt1SMOGpKPi
Hlt2PIDDetJPsiMuMuPosTagged
   L0DU (L0_ALL):
      CALO
      MUON
      PU
      SPD
      SPDLowMult
   HLT1 (HLT_PASS_RE('Hlt1SMOG.*Decision') | HLT_PASS('Hlt1BEMicroBiasVeloDecision') ):
      Hlt1BEMicroBiasVelo
      Hlt1SMOGGeneric
      Hlt1SMOGKKPi
      Hlt1SMOGKPi
      Hlt1SMOGKPiPi
      Hlt1SMOGSingleTrack
      Hlt1SMOGpKPi
Hlt2PIDDetJPsiPPNegTagged
   HLT1 (HLT_PASS_RE('Hlt1SMOG.*Decision') | HLT_PASS('Hlt1BEMicroBiasVeloDecision') ):
      Hlt1BEMicroBiasVelo
      Hlt1SMOGGeneric
      Hlt1SMOGKKPi
      Hlt1SMOGKPi
      Hlt1SMOGKPiPi
      Hlt1SMOGSingleTrack
      Hlt1SMOGpKPi
Hlt2PIDDetJPsiPPPosTagged
   HLT1 (HLT_PASS_RE('Hlt1SMOG.*Decision') | HLT_PASS('Hlt1BEMicroBiasVeloDecision') ):
      Hlt1BEMicroBiasVelo
      Hlt1SMOGGeneric
      Hlt1SMOGKKPi
      Hlt1SMOGKPi
      Hlt1SMOGKPiPi
      Hlt1SMOGSingleTrack
      Hlt1SMOGpKPi
Hlt2PIDDetPhiKKNegTagged
   HLT1 (HLT_PASS_RE('Hlt1SMOG.*Decision') | HLT_PASS('Hlt1BEMicroBiasVeloDecision') ):
      Hlt1BEMicroBiasVelo
      Hlt1SMOGGeneric
      Hlt1SMOGKKPi
      Hlt1SMOGKPi
      Hlt1SMOGKPiPi
      Hlt1SMOGSingleTrack
      Hlt1SMOGpKPi
Hlt2PIDDetPhiKKPosTagged
   HLT1 (HLT_PASS_RE('Hlt1SMOG.*Decision') | HLT_PASS('Hlt1BEMicroBiasVeloDecision') ):
      Hlt1BEMicroBiasVelo
      Hlt1SMOGGeneric
      Hlt1SMOGKKPi
      Hlt1SMOGKPi
      Hlt1SMOGKPiPi
      Hlt1SMOGSingleTrack
      Hlt1SMOGpKPi
Hlt2PIDDetPhiKKUnbiased
   HLT1 (HLT_PASS_RE('Hlt1SMOG.*Decision') | HLT_PASS('Hlt1BEMicroBiasVeloDecision') ):
      Hlt1BEMicroBiasVelo
      Hlt1SMOGGeneric
      Hlt1SMOGKKPi
      Hlt1SMOGKPi
      Hlt1SMOGKPiPi
      Hlt1SMOGSingleTrack
      Hlt1SMOGpKPi
Hlt2PIDDetPhiMuMuNegTagged
   L0DU (L0_ALL):
      CALO
      MUON
      PU
      SPD
      SPDLowMult
   HLT1 (HLT_PASS_RE('Hlt1SMOG.*Decision') | HLT_PASS('Hlt1BEMicroBiasVeloDecision') ):
      Hlt1BEMicroBiasVelo
      Hlt1SMOGGeneric
      Hlt1SMOGKKPi
      Hlt1SMOGKPi
      Hlt1SMOGKPiPi
      Hlt1SMOGSingleTrack
      Hlt1SMOGpKPi
Hlt2PIDDetPhiMuMuPosTagged
   L0DU (L0_ALL):
      CALO
      MUON
      PU
      SPD
      SPDLowMult
   HLT1 (HLT_PASS_RE('Hlt1SMOG.*Decision') | HLT_PASS('Hlt1BEMicroBiasVeloDecision') ):
      Hlt1BEMicroBiasVelo
      Hlt1SMOGGeneric
      Hlt1SMOGKKPi
      Hlt1SMOGKPi
      Hlt1SMOGKPiPi
      Hlt1SMOGSingleTrack
      Hlt1SMOGpKPi
Hlt2PIDDs2PiPhiKKNegTagged
   HLT1 (HLT_PASS_RE('Hlt1SMOG.*Decision') | HLT_PASS('Hlt1BEMicroBiasVeloDecision') ):
      Hlt1BEMicroBiasVelo
      Hlt1SMOGGeneric
      Hlt1SMOGKKPi
      Hlt1SMOGKPi
      Hlt1SMOGKPiPi
      Hlt1SMOGSingleTrack
      Hlt1SMOGpKPi
Hlt2PIDDs2PiPhiKKPosTagged
   HLT1 (HLT_PASS_RE('Hlt1SMOG.*Decision') | HLT_PASS('Hlt1BEMicroBiasVeloDecision') ):
      Hlt1BEMicroBiasVelo
      Hlt1SMOGGeneric
      Hlt1SMOGKKPi
      Hlt1SMOGKPi
      Hlt1SMOGKPiPi
      Hlt1SMOGSingleTrack
      Hlt1SMOGpKPi
Hlt2PIDDs2PiPhiKKUnbiased
   HLT1 (HLT_PASS_RE('Hlt1SMOG.*Decision') | HLT_PASS('Hlt1BEMicroBiasVeloDecision') ):
      Hlt1BEMicroBiasVelo
      Hlt1SMOGGeneric
      Hlt1SMOGKKPi
      Hlt1SMOGKPi
      Hlt1SMOGKPiPi
      Hlt1SMOGSingleTrack
      Hlt1SMOGpKPi
Hlt2PIDDs2PiPhiMuMuNegTagged
   L0DU (L0_ALL):
      CALO
      MUON
      PU
      SPD
      SPDLowMult
   HLT1 (HLT_PASS_RE('Hlt1SMOG.*Decision') | HLT_PASS('Hlt1BEMicroBiasVeloDecision') ):
      Hlt1BEMicroBiasVelo
      Hlt1SMOGGeneric
      Hlt1SMOGKKPi
      Hlt1SMOGKPi
      Hlt1SMOGKPiPi
      Hlt1SMOGSingleTrack
      Hlt1SMOGpKPi
Hlt2PIDDs2PiPhiMuMuPosTagged
   L0DU (L0_ALL):
      CALO
      MUON
      PU
      SPD
      SPDLowMult
   HLT1 (HLT_PASS_RE('Hlt1SMOG.*Decision') | HLT_PASS('Hlt1BEMicroBiasVeloDecision') ):
      Hlt1BEMicroBiasVelo
      Hlt1SMOGGeneric
      Hlt1SMOGKKPi
      Hlt1SMOGKPi
      Hlt1SMOGKPiPi
      Hlt1SMOGSingleTrack
      Hlt1SMOGpKPi
Hlt2PIDKs2PiPiLL
   HLT1 (HLT_PASS_RE('Hlt1SMOG.*Decision') | HLT_PASS('Hlt1BEMicroBiasVeloDecision') ):
      Hlt1BEMicroBiasVelo
      Hlt1SMOGGeneric
      Hlt1SMOGKKPi
      Hlt1SMOGKPi
      Hlt1SMOGKPiPi
      Hlt1SMOGSingleTrack
      Hlt1SMOGpKPi
Hlt2PIDLambda2PPiLL
   HLT1 (HLT_PASS_RE('Hlt1SMOG.*Decision') | HLT_PASS('Hlt1BEMicroBiasVeloDecision') ):
      Hlt1BEMicroBiasVelo
      Hlt1SMOGGeneric
      Hlt1SMOGKKPi
      Hlt1SMOGKPi
      Hlt1SMOGKPiPi
      Hlt1SMOGSingleTrack
      Hlt1SMOGpKPi
Hlt2PIDLambda2PPiLLhighPT
   HLT1 (HLT_PASS_RE('Hlt1SMOG.*Decision') | HLT_PASS('Hlt1BEMicroBiasVeloDecision') ):
      Hlt1BEMicroBiasVelo
      Hlt1SMOGGeneric
      Hlt1SMOGKKPi
      Hlt1SMOGKPi
      Hlt1SMOGKPiPi
      Hlt1SMOGSingleTrack
      Hlt1SMOGpKPi
Hlt2PIDLambda2PPiLLisMuon
   HLT1 (HLT_PASS_RE('Hlt1SMOG.*Decision') | HLT_PASS('Hlt1BEMicroBiasVeloDecision') ):
      Hlt1BEMicroBiasVelo
      Hlt1SMOGGeneric
      Hlt1SMOGKKPi
      Hlt1SMOGKPi
      Hlt1SMOGKPiPi
      Hlt1SMOGSingleTrack
      Hlt1SMOGpKPi
Hlt2PIDLambda2PPiLLveryhighPT
   HLT1 (HLT_PASS_RE('Hlt1SMOG.*Decision') | HLT_PASS('Hlt1BEMicroBiasVeloDecision') ):
      Hlt1BEMicroBiasVelo
      Hlt1SMOGGeneric
      Hlt1SMOGKKPi
      Hlt1SMOGKPi
      Hlt1SMOGKPiPi
      Hlt1SMOGSingleTrack
      Hlt1SMOGpKPi
Hlt2PIDLb2LcMuNu
   HLT1 (HLT_PASS_RE('Hlt1SMOG.*Decision') | HLT_PASS('Hlt1BEMicroBiasVeloDecision') ):
      Hlt1BEMicroBiasVelo
      Hlt1SMOGGeneric
      Hlt1SMOGKKPi
      Hlt1SMOGKPi
      Hlt1SMOGKPiPi
      Hlt1SMOGSingleTrack
      Hlt1SMOGpKPi
Hlt2PIDLb2LcPi
   HLT1 (HLT_PASS_RE('Hlt1SMOG.*Decision') | HLT_PASS('Hlt1BEMicroBiasVeloDecision') ):
      Hlt1BEMicroBiasVelo
      Hlt1SMOGGeneric
      Hlt1SMOGKKPi
      Hlt1SMOGKPi
      Hlt1SMOGKPiPi
      Hlt1SMOGSingleTrack
      Hlt1SMOGpKPi
Hlt2PIDSc02LcPi
   HLT1 (HLT_PASS_RE('Hlt1SMOG.*Decision') | HLT_PASS('Hlt1BEMicroBiasVeloDecision') ):
      Hlt1BEMicroBiasVelo
      Hlt1SMOGGeneric
      Hlt1SMOGKKPi
      Hlt1SMOGKPi
      Hlt1SMOGKPiPi
      Hlt1SMOGSingleTrack
      Hlt1SMOGpKPi
Hlt2PIDScpp2LcPi
   HLT1 (HLT_PASS_RE('Hlt1SMOG.*Decision') | HLT_PASS('Hlt1BEMicroBiasVeloDecision') ):
      Hlt1BEMicroBiasVelo
      Hlt1SMOGGeneric
      Hlt1SMOGKKPi
      Hlt1SMOGKPi
      Hlt1SMOGKPiPi
      Hlt1SMOGSingleTrack
      Hlt1SMOGpKPi
Hlt2SMOGB2PiMu
   HLT1 (HLT_PASS_RE('Hlt1SMOG.*Decision') AND ('Hlt1SMOG.*Decision', 'TOS')):
      Hlt1SMOGGeneric
      Hlt1SMOGKKPi
      Hlt1SMOGKPi
      Hlt1SMOGKPiPi
      Hlt1SMOGSingleTrack
      Hlt1SMOGpKPi
Hlt2SMOGD02KPi
   HLT1 (HLT_PASS_RE('Hlt1SMOG.*Decision') AND ('Hlt1SMOG.*Decision', 'TOS')):
      Hlt1SMOGGeneric
      Hlt1SMOGKKPi
      Hlt1SMOGKPi
      Hlt1SMOGKPiPi
      Hlt1SMOGSingleTrack
      Hlt1SMOGpKPi
Hlt2SMOGDpm2KPiPi
   HLT1 (HLT_PASS_RE('Hlt1SMOG.*Decision') AND ('Hlt1SMOG.*Decision', 'TOS')):
      Hlt1SMOGGeneric
      Hlt1SMOGKKPi
      Hlt1SMOGKPi
      Hlt1SMOGKPiPi
      Hlt1SMOGSingleTrack
      Hlt1SMOGpKPi
Hlt2SMOGDs2KKPi
   HLT1 (HLT_PASS_RE('Hlt1SMOG.*Decision') AND ('Hlt1SMOG.*Decision', 'TOS')):
      Hlt1SMOGGeneric
      Hlt1SMOGKKPi
      Hlt1SMOGKPi
      Hlt1SMOGKPiPi
      Hlt1SMOGSingleTrack
      Hlt1SMOGpKPi
Hlt2SMOGLc2KPPi
   HLT1 (HLT_PASS_RE('Hlt1SMOG.*Decision') AND ('Hlt1SMOG.*Decision', 'TOS')):
      Hlt1SMOGGeneric
      Hlt1SMOGKKPi
      Hlt1SMOGKPi
      Hlt1SMOGKPiPi
      Hlt1SMOGSingleTrack
      Hlt1SMOGpKPi
Hlt2TrackEffDiMuonDownstreamMinusMatchedFullstream
   L0DU (L0_CHANNEL('MUON')):
      MUON
   HLT1 (HLT_PASS_RE('Hlt1SMOG.*Decision') | HLT_PASS('Hlt1BEMicroBiasVeloDecision')):
      Hlt1BEMicroBiasVelo
      Hlt1SMOGGeneric
      Hlt1SMOGKKPi
      Hlt1SMOGKPi
      Hlt1SMOGKPiPi
      Hlt1SMOGSingleTrack
      Hlt1SMOGpKPi
Hlt2TrackEffDiMuonDownstreamMinusTaggedFullstream
   L0DU (L0_CHANNEL('MUON')):
      MUON
   HLT1 (HLT_PASS_RE('Hlt1SMOG.*Decision') | HLT_PASS('Hlt1BEMicroBiasVeloDecision')):
      Hlt1BEMicroBiasVelo
      Hlt1SMOGGeneric
      Hlt1SMOGKKPi
      Hlt1SMOGKPi
      Hlt1SMOGKPiPi
      Hlt1SMOGSingleTrack
      Hlt1SMOGpKPi
Hlt2TrackEffDiMuonDownstreamPlusMatchedFullstream
   L0DU (L0_CHANNEL('MUON')):
      MUON
   HLT1 (HLT_PASS_RE('Hlt1SMOG.*Decision') | HLT_PASS('Hlt1BEMicroBiasVeloDecision')):
      Hlt1BEMicroBiasVelo
      Hlt1SMOGGeneric
      Hlt1SMOGKKPi
      Hlt1SMOGKPi
      Hlt1SMOGKPiPi
      Hlt1SMOGSingleTrack
      Hlt1SMOGpKPi
Hlt2TrackEffDiMuonDownstreamPlusTaggedFullstream
   L0DU (L0_CHANNEL('MUON')):
      MUON
   HLT1 (HLT_PASS_RE('Hlt1SMOG.*Decision') | HLT_PASS('Hlt1BEMicroBiasVeloDecision')):
      Hlt1BEMicroBiasVelo
      Hlt1SMOGGeneric
      Hlt1SMOGKKPi
      Hlt1SMOGKPi
      Hlt1SMOGKPiPi
      Hlt1SMOGSingleTrack
      Hlt1SMOGpKPi
Hlt2TrackEffDiMuonMuonTTMinusMatchedFullstream
   L0DU (L0_CHANNEL('MUON')):
      MUON
   HLT1 (HLT_PASS_RE('Hlt1SMOG.*Decision') | HLT_PASS('Hlt1BEMicroBiasVeloDecision')):
      Hlt1BEMicroBiasVelo
      Hlt1SMOGGeneric
      Hlt1SMOGKKPi
      Hlt1SMOGKPi
      Hlt1SMOGKPiPi
      Hlt1SMOGSingleTrack
      Hlt1SMOGpKPi
Hlt2TrackEffDiMuonMuonTTMinusTaggedFullstream
   L0DU (L0_CHANNEL('MUON')):
      MUON
   HLT1 (HLT_PASS_RE('Hlt1SMOG.*Decision') | HLT_PASS('Hlt1BEMicroBiasVeloDecision')):
      Hlt1BEMicroBiasVelo
      Hlt1SMOGGeneric
      Hlt1SMOGKKPi
      Hlt1SMOGKPi
      Hlt1SMOGKPiPi
      Hlt1SMOGSingleTrack
      Hlt1SMOGpKPi
Hlt2TrackEffDiMuonMuonTTPlusMatchedFullstream
   L0DU (L0_CHANNEL('MUON')):
      MUON
   HLT1 (HLT_PASS_RE('Hlt1SMOG.*Decision') | HLT_PASS('Hlt1BEMicroBiasVeloDecision')):
      Hlt1BEMicroBiasVelo
      Hlt1SMOGGeneric
      Hlt1SMOGKKPi
      Hlt1SMOGKPi
      Hlt1SMOGKPiPi
      Hlt1SMOGSingleTrack
      Hlt1SMOGpKPi
Hlt2TrackEffDiMuonMuonTTPlusTaggedFullstream
   L0DU (L0_CHANNEL('MUON')):
      MUON
   HLT1 (HLT_PASS_RE('Hlt1SMOG.*Decision') | HLT_PASS('Hlt1BEMicroBiasVeloDecision')):
      Hlt1BEMicroBiasVelo
      Hlt1SMOGGeneric
      Hlt1SMOGKKPi
      Hlt1SMOGKPi
      Hlt1SMOGKPiPi
      Hlt1SMOGSingleTrack
      Hlt1SMOGpKPi
Hlt2TrackEffDiMuonVeloMuonMinusMatchedFullstream
   L0DU (L0_CHANNEL('MUON')):
      MUON
   HLT1 (HLT_PASS_RE('Hlt1SMOG.*Decision') | HLT_PASS('Hlt1BEMicroBiasVeloDecision')):
      Hlt1BEMicroBiasVelo
      Hlt1SMOGGeneric
      Hlt1SMOGKKPi
      Hlt1SMOGKPi
      Hlt1SMOGKPiPi
      Hlt1SMOGSingleTrack
      Hlt1SMOGpKPi
Hlt2TrackEffDiMuonVeloMuonMinusTaggedFullstream
   L0DU (L0_CHANNEL('MUON')):
      MUON
   HLT1 (HLT_PASS_RE('Hlt1SMOG.*Decision') | HLT_PASS('Hlt1BEMicroBiasVeloDecision')):
      Hlt1BEMicroBiasVelo
      Hlt1SMOGGeneric
      Hlt1SMOGKKPi
      Hlt1SMOGKPi
      Hlt1SMOGKPiPi
      Hlt1SMOGSingleTrack
      Hlt1SMOGpKPi
Hlt2TrackEffDiMuonVeloMuonPlusMatchedFullstream
   L0DU (L0_CHANNEL('MUON')):
      MUON
   HLT1 (HLT_PASS_RE('Hlt1SMOG.*Decision') | HLT_PASS('Hlt1BEMicroBiasVeloDecision')):
      Hlt1BEMicroBiasVelo
      Hlt1SMOGGeneric
      Hlt1SMOGKKPi
      Hlt1SMOGKPi
      Hlt1SMOGKPiPi
      Hlt1SMOGSingleTrack
      Hlt1SMOGpKPi
Hlt2TrackEffDiMuonVeloMuonPlusTaggedFullstream
   L0DU (L0_CHANNEL('MUON')):
      MUON
   HLT1 (HLT_PASS_RE('Hlt1SMOG.*Decision') | HLT_PASS('Hlt1BEMicroBiasVeloDecision')):
      Hlt1BEMicroBiasVelo
      Hlt1SMOGGeneric
      Hlt1SMOGKKPi
      Hlt1SMOGKPi
      Hlt1SMOGKPiPi
      Hlt1SMOGSingleTrack
      Hlt1SMOGpKPi
Hlt2Transparent
   HLT1 (HLT_PASS_RE('^Hlt1(ODIN.*|L0.*|MB.*|NZS.*|Incident|Tell1Error|ErrorEvent)Decision$')):
      Hlt1ErrorEvent
      Hlt1ODINTechnical
      Hlt1Tell1Error
RB_0 
RB_1 
RB_3 
RB_4 
RB_5 
RB_6 
RB_8 
RB_9 
RB_10 
RB_11 
RB_12 
RB_13 
RB_14 
RB_15 
RB_16 
RB_17 
RB_18 
RB_19 
RB_32 
   HLT1 (HLT_PASS('Hlt1Global')):
      Hlt1Global
RB_33 
   HLT1 (HLT_PASS_RE('^Hlt1Lumi.*Decision$')):
      Hlt1Lumi
      Hlt1LumiLowBeam1
      Hlt1LumiLowBeam2
      Hlt1LumiLowBeamCrossing
      Hlt1LumiLowNoBeam
RB_34 
   HLT1 ( ~ ( (HLT_PASS_SUBSTR('Hlt1Lumi') & ~HLT_PASS_RE('Hlt1(?!Lumi).*Decision')) ) ):
      Hlt1BBHighMult
      Hlt1BBL0CALO
      Hlt1BBL0MUON
      Hlt1BBL0PU
      Hlt1BBL0SPD
      Hlt1BBL0SPDLowMult
      Hlt1BBMicroBiasVelo
      Hlt1BEHighMult
      Hlt1BEL0CALO
      Hlt1BEL0MUON
      Hlt1BEL0PU
      Hlt1BEL0SPD
      Hlt1BEL0SPDLowMult
      Hlt1BEMicroBiasLowMultVelo
      Hlt1BEMicroBiasVelo
      Hlt1BeamGasBeam1
      Hlt1BeamGasBeam2
      Hlt1BeamGasCrossingForcedReco
      Hlt1BeamGasCrossingForcedRecoFullZ
      Hlt1BeamGasNoBeamBeam1
      Hlt1BeamGasNoBeamBeam2
      Hlt1CalibHighPTLowMultTrks
      Hlt1CalibMuonAlignJpsi
      Hlt1CalibRICHMirrorRICH1
      Hlt1CalibRICHMirrorRICH2
      Hlt1CalibTrackingKK
      Hlt1CalibTrackingKPi
      Hlt1CalibTrackingKPiDetached
      Hlt1CalibTrackingPiPi
      Hlt1DiMuonHighMass
      Hlt1DiMuonHighMassBE
      Hlt1ErrorEvent
      Hlt1Global
      Hlt1NoBiasNonBeamBeam
      Hlt1ODINTechnical
      Hlt1SMOGGeneric
      Hlt1SMOGKKPi
      Hlt1SMOGKPi
      Hlt1SMOGKPiPi
      Hlt1SMOGSingleTrack
      Hlt1SMOGpKPi
      Hlt1Tell1Error
      Hlt1VeloClosingMicroBias
RB_35 
   HLT1 (HLT_PASS_SUBSTR('Hlt1BeamGas')):
      Hlt1BeamGasBeam1
      Hlt1BeamGasBeam2
      Hlt1BeamGasCrossingForcedReco
      Hlt1BeamGasCrossingForcedRecoFullZ
      Hlt1BeamGasNoBeamBeam1
      Hlt1BeamGasNoBeamBeam2
RB_37 
   HLT1 (HLT_PASS_RE('Hlt1(?!BeamGas).*Decision')):
      Hlt1BBHighMult
      Hlt1BBL0CALO
      Hlt1BBL0MUON
      Hlt1BBL0PU
      Hlt1BBL0SPD
      Hlt1BBL0SPDLowMult
      Hlt1BBMicroBiasVelo
      Hlt1BEHighMult
      Hlt1BEL0CALO
      Hlt1BEL0MUON
      Hlt1BEL0PU
      Hlt1BEL0SPD
      Hlt1BEL0SPDLowMult
      Hlt1BEMicroBiasLowMultVelo
      Hlt1BEMicroBiasVelo
      Hlt1CalibHighPTLowMultTrks
      Hlt1CalibMuonAlignJpsi
      Hlt1CalibRICHMirrorRICH1
      Hlt1CalibRICHMirrorRICH2
      Hlt1CalibTrackingKK
      Hlt1CalibTrackingKPi
      Hlt1CalibTrackingKPiDetached
      Hlt1CalibTrackingPiPi
      Hlt1DiMuonHighMass
      Hlt1DiMuonHighMassBE
      Hlt1ErrorEvent
      Hlt1Lumi
      Hlt1LumiLowBeam1
      Hlt1LumiLowBeam2
      Hlt1LumiLowBeamCrossing
      Hlt1LumiLowNoBeam
      Hlt1NoBiasNonBeamBeam
      Hlt1ODINTechnical
      Hlt1SMOGGeneric
      Hlt1SMOGKKPi
      Hlt1SMOGKPi
      Hlt1SMOGKPiPi
      Hlt1SMOGSingleTrack
      Hlt1SMOGpKPi
      Hlt1Tell1Error
      Hlt1VeloClosingMicroBias
RB_38 
   HLT1 (HLT_PASS('Hlt1ODINTechnicalDecision')):
      Hlt1ODINTechnical
RB_39 
   HLT1 (HLT_PASS_SUBSTR('Hlt1L0')):
RB_40 VELOCLOSING
   HLT1 (HLT_PASS_RE('Hlt1Velo.*Decision')):
      Hlt1VeloClosingMicroBias
RB_41 
   HLT1 (HLT_PASS_RE('Hlt1(Single|Track)Muon.*Decision')):
RB_42 
   HLT1 (HLT_PASS_RE('Hlt1.*DiMuon.*Decision')):
      Hlt1DiMuonHighMass
      Hlt1DiMuonHighMassBE
RB_43 
   HLT1 (HLT_PASS_RE('Hlt1.*MuonNoL0.*Decision')):
RB_44 
   HLT1 (HLT_PASS_RE('Hlt1.*Electron.*Decision')):
RB_45 
   HLT1 (HLT_PASS_RE('Hlt1.*Gamma.*Decision')):
RB_46 
   HLT1 (HLT_PASS_RE('Hlt1(?!ODIN)(?!L0)(?!Lumi)(?!Tell1)(?!MB)(?!NZS)(?!Velo)(?!BeamGas)(?!Incident).*Decision')):
      Hlt1BBHighMult
      Hlt1BBL0CALO
      Hlt1BBL0MUON
      Hlt1BBL0PU
      Hlt1BBL0SPD
      Hlt1BBL0SPDLowMult
      Hlt1BBMicroBiasVelo
      Hlt1BEHighMult
      Hlt1BEL0CALO
      Hlt1BEL0MUON
      Hlt1BEL0PU
      Hlt1BEL0SPD
      Hlt1BEL0SPDLowMult
      Hlt1BEMicroBiasLowMultVelo
      Hlt1BEMicroBiasVelo
      Hlt1CalibHighPTLowMultTrks
      Hlt1CalibMuonAlignJpsi
      Hlt1CalibRICHMirrorRICH1
      Hlt1CalibRICHMirrorRICH2
      Hlt1CalibTrackingKK
      Hlt1CalibTrackingKPi
      Hlt1CalibTrackingKPiDetached
      Hlt1CalibTrackingPiPi
      Hlt1DiMuonHighMass
      Hlt1DiMuonHighMassBE
      Hlt1ErrorEvent
      Hlt1NoBiasNonBeamBeam
      Hlt1SMOGGeneric
      Hlt1SMOGKKPi
      Hlt1SMOGKPi
      Hlt1SMOGKPiPi
      Hlt1SMOGSingleTrack
      Hlt1SMOGpKPi
RB_47 
   HLT1 (HLT_PASS_RE('Hlt1MBMicroBias.*Decision')):
RB_48 HLT1NOBIAS
   HLT1 (HLT_PASS('Hlt1MBNoBiasDecision')):
RB_49 
   HLT1 (HLT_PASS_RE('Hlt1.*MVA.*Decision')):
RB_50 
   HLT1 (HLT_PASS('Hlt1LumiLowBeamCrossingDecision')):
      Hlt1LumiLowBeamCrossing
RB_51 
   HLT1 (HLT_PASS('Hlt1LumiMidBeamCrossingDecision')):
RB_53 
   HLT1 (HLT_PASS_RE('Hlt1Calib(TrackingKPiDetached|HighPTLowMultTrks)Decision')):
      Hlt1CalibHighPTLowMultTrks
      Hlt1CalibTrackingKPiDetached
RB_54 
   HLT1 (HLT_PASS_RE('Hlt1CalibRICH.*Decision')):
      Hlt1CalibRICHMirrorRICH1
      Hlt1CalibRICHMirrorRICH2
RB_55 
   HLT1 (HLT_PASS('Hlt1MBNoBiasRateLimitedDecision')):
RB_56 
   HLT1 (HLT_PASS('Hlt1CalibMuonAlignJpsiDecision')):
      Hlt1CalibMuonAlignJpsi
RB_57 
   HLT1 (HLT_PASS_RE('Hlt1SMOG.*Decision')):
      Hlt1SMOGGeneric
      Hlt1SMOGKKPi
      Hlt1SMOGKPi
      Hlt1SMOGKPiPi
      Hlt1SMOGSingleTrack
      Hlt1SMOGpKPi
RB_60 
   HLT1 (HLT_PASS('Hlt1TrackAllL0Decision')):
RB_64 
   HLT2 (HLT_PASS('Hlt2Global')):
      Hlt2Global
RB_65 
   HLT2 (HLT_PASS('Hlt2DebugEventDecision')):
RB_66 
   HLT2 (HLT_PASS_RE('Hlt2(?!Transparent).*Decision')):
      Hlt2BBPassThrough
      Hlt2BEHighMultPassThrough
      Hlt2BEL0PassThrough
      Hlt2BELowMultVeloPassThrough
      Hlt2BEMicroBiasVeloPassThrough
      Hlt2BESelectVeloMultPassThrough
      Hlt2BeamGasPassThrough
      Hlt2DiMuonPassThrough
      Hlt2Lumi
      Hlt2LumiLowBeam1
      Hlt2LumiLowBeam1Prescaled
      Hlt2LumiLowBeam2
      Hlt2LumiLowBeamCrossing
      Hlt2LumiLowNoBeam
      Hlt2LumiRandom
      Hlt2NoBiasNonBeamBeam
      Hlt2PIDB2KJPsiEENegTagged
      Hlt2PIDB2KJPsiEEPosTagged
      Hlt2PIDB2KJPsiMuMuNegTagged
      Hlt2PIDB2KJPsiMuMuPosTagged
      Hlt2PIDB2KJPsiPPNegTagged
      Hlt2PIDB2KJPsiPPPosTagged
      Hlt2PIDD02KPiPiPi
      Hlt2PIDD02KPiPiPiTag
      Hlt2PIDD02KPiTag
      Hlt2PIDDetJPsiEENegTagged
      Hlt2PIDDetJPsiEEPosTagged
      Hlt2PIDDetJPsiMuMuNegTagged
      Hlt2PIDDetJPsiMuMuPosTagged
      Hlt2PIDDetJPsiPPNegTagged
      Hlt2PIDDetJPsiPPPosTagged
      Hlt2PIDDetPhiKKNegTagged
      Hlt2PIDDetPhiKKPosTagged
      Hlt2PIDDetPhiKKUnbiased
      Hlt2PIDDetPhiMuMuNegTagged
      Hlt2PIDDetPhiMuMuPosTagged
      Hlt2PIDDs2PiPhiKKNegTagged
      Hlt2PIDDs2PiPhiKKPosTagged
      Hlt2PIDDs2PiPhiKKUnbiased
      Hlt2PIDDs2PiPhiMuMuNegTagged
      Hlt2PIDDs2PiPhiMuMuPosTagged
      Hlt2PIDKs2PiPiLL
      Hlt2PIDLambda2PPiLL
      Hlt2PIDLambda2PPiLLhighPT
      Hlt2PIDLambda2PPiLLisMuon
      Hlt2PIDLambda2PPiLLveryhighPT
      Hlt2PIDLb2LcMuNu
      Hlt2PIDLb2LcPi
      Hlt2PIDSc02LcPi
      Hlt2PIDScpp2LcPi
      Hlt2SMOGB2PiMu
      Hlt2SMOGD02KPi
      Hlt2SMOGDpm2KPiPi
      Hlt2SMOGDs2KKPi
      Hlt2SMOGLc2KPPi
      Hlt2TrackEffDiMuonDownstreamMinusMatchedFullstream
      Hlt2TrackEffDiMuonDownstreamMinusTaggedFullstream
      Hlt2TrackEffDiMuonDownstreamPlusMatchedFullstream
      Hlt2TrackEffDiMuonDownstreamPlusTaggedFullstream
      Hlt2TrackEffDiMuonMuonTTMinusMatchedFullstream
      Hlt2TrackEffDiMuonMuonTTMinusTaggedFullstream
      Hlt2TrackEffDiMuonMuonTTPlusMatchedFullstream
      Hlt2TrackEffDiMuonMuonTTPlusTaggedFullstream
      Hlt2TrackEffDiMuonVeloMuonMinusMatchedFullstream
      Hlt2TrackEffDiMuonVeloMuonMinusTaggedFullstream
      Hlt2TrackEffDiMuonVeloMuonPlusMatchedFullstream
      Hlt2TrackEffDiMuonVeloMuonPlusTaggedFullstream
RB_67 
   HLT2 (HLT_PASS_RE('Hlt2.*SingleMuon.*Decision')):
RB_68 
   HLT2 (HLT_PASS_RE('Hlt2.*DiMuon.*Decision')):
      Hlt2DiMuonPassThrough
      Hlt2TrackEffDiMuonDownstreamMinusMatchedFullstream
      Hlt2TrackEffDiMuonDownstreamMinusTaggedFullstream
      Hlt2TrackEffDiMuonDownstreamPlusMatchedFullstream
      Hlt2TrackEffDiMuonDownstreamPlusTaggedFullstream
      Hlt2TrackEffDiMuonMuonTTMinusMatchedFullstream
      Hlt2TrackEffDiMuonMuonTTMinusTaggedFullstream
      Hlt2TrackEffDiMuonMuonTTPlusMatchedFullstream
      Hlt2TrackEffDiMuonMuonTTPlusTaggedFullstream
      Hlt2TrackEffDiMuonVeloMuonMinusMatchedFullstream
      Hlt2TrackEffDiMuonVeloMuonMinusTaggedFullstream
      Hlt2TrackEffDiMuonVeloMuonPlusMatchedFullstream
      Hlt2TrackEffDiMuonVeloMuonPlusTaggedFullstream
RB_69 
   HLT2 (HLT_PASS_RE('Hlt2.*DY.*Decision')):
RB_70 
   HLT2 (HLT_PASS_RE('Hlt2.*Topo.*Decision')):
RB_71 
   HLT2 (HLT_PASS_RE('Hlt2.*CharmHad.*Decision')):
RB_72 
   HLT2 (HLT_PASS_RE('Hlt2.*IncPhi.*Decision')):
RB_73 
   HLT2 (HLT_PASS_RE('Hlt2.*Gamma.*Decision')):
RB_74 
   HLT2 (HLT_PASS_RE('Hlt2.*TriMuon.*Decision')):
RB_75 
   HLT2 (HLT_PASS_RE('Hlt2.*RareCharm.*Decision')):
RB_76 
   HLT2 (HLT_PASS_RE('Hlt2.*DisplVertices.*Decision')):
RB_77 
   HLT2 (HLT_PASS_RE('Hlt2(?!Forward)(?!DebugEvent)(?!Lumi)(?!Transparent)(?!PassThrough).*Decision')):
      Hlt2BBPassThrough
      Hlt2BEHighMultPassThrough
      Hlt2BEL0PassThrough
      Hlt2BELowMultVeloPassThrough
      Hlt2BEMicroBiasVeloPassThrough
      Hlt2BESelectVeloMultPassThrough
      Hlt2BeamGasPassThrough
      Hlt2DiMuonPassThrough
      Hlt2NoBiasNonBeamBeam
      Hlt2PIDB2KJPsiEENegTagged
      Hlt2PIDB2KJPsiEEPosTagged
      Hlt2PIDB2KJPsiMuMuNegTagged
      Hlt2PIDB2KJPsiMuMuPosTagged
      Hlt2PIDB2KJPsiPPNegTagged
      Hlt2PIDB2KJPsiPPPosTagged
      Hlt2PIDD02KPiPiPi
      Hlt2PIDD02KPiPiPiTag
      Hlt2PIDD02KPiTag
      Hlt2PIDDetJPsiEENegTagged
      Hlt2PIDDetJPsiEEPosTagged
      Hlt2PIDDetJPsiMuMuNegTagged
      Hlt2PIDDetJPsiMuMuPosTagged
      Hlt2PIDDetJPsiPPNegTagged
      Hlt2PIDDetJPsiPPPosTagged
      Hlt2PIDDetPhiKKNegTagged
      Hlt2PIDDetPhiKKPosTagged
      Hlt2PIDDetPhiKKUnbiased
      Hlt2PIDDetPhiMuMuNegTagged
      Hlt2PIDDetPhiMuMuPosTagged
      Hlt2PIDDs2PiPhiKKNegTagged
      Hlt2PIDDs2PiPhiKKPosTagged
      Hlt2PIDDs2PiPhiKKUnbiased
      Hlt2PIDDs2PiPhiMuMuNegTagged
      Hlt2PIDDs2PiPhiMuMuPosTagged
      Hlt2PIDKs2PiPiLL
      Hlt2PIDLambda2PPiLL
      Hlt2PIDLambda2PPiLLhighPT
      Hlt2PIDLambda2PPiLLisMuon
      Hlt2PIDLambda2PPiLLveryhighPT
      Hlt2PIDLb2LcMuNu
      Hlt2PIDLb2LcPi
      Hlt2PIDSc02LcPi
      Hlt2PIDScpp2LcPi
      Hlt2SMOGB2PiMu
      Hlt2SMOGD02KPi
      Hlt2SMOGDpm2KPiPi
      Hlt2SMOGDs2KKPi
      Hlt2SMOGLc2KPPi
      Hlt2TrackEffDiMuonDownstreamMinusMatchedFullstream
      Hlt2TrackEffDiMuonDownstreamMinusTaggedFullstream
      Hlt2TrackEffDiMuonDownstreamPlusMatchedFullstream
      Hlt2TrackEffDiMuonDownstreamPlusTaggedFullstream
      Hlt2TrackEffDiMuonMuonTTMinusMatchedFullstream
      Hlt2TrackEffDiMuonMuonTTMinusTaggedFullstream
      Hlt2TrackEffDiMuonMuonTTPlusMatchedFullstream
      Hlt2TrackEffDiMuonMuonTTPlusTaggedFullstream
      Hlt2TrackEffDiMuonVeloMuonMinusMatchedFullstream
      Hlt2TrackEffDiMuonVeloMuonMinusTaggedFullstream
      Hlt2TrackEffDiMuonVeloMuonPlusMatchedFullstream
      Hlt2TrackEffDiMuonVeloMuonPlusTaggedFullstream
RB_78 
   HLT2 (HLT_PASS_RE('Hlt2.*Muon.*Decision')):
      Hlt2DiMuonPassThrough
      Hlt2PIDLambda2PPiLLisMuon
      Hlt2TrackEffDiMuonDownstreamMinusMatchedFullstream
      Hlt2TrackEffDiMuonDownstreamMinusTaggedFullstream
      Hlt2TrackEffDiMuonDownstreamPlusMatchedFullstream
      Hlt2TrackEffDiMuonDownstreamPlusTaggedFullstream
      Hlt2TrackEffDiMuonMuonTTMinusMatchedFullstream
      Hlt2TrackEffDiMuonMuonTTMinusTaggedFullstream
      Hlt2TrackEffDiMuonMuonTTPlusMatchedFullstream
      Hlt2TrackEffDiMuonMuonTTPlusTaggedFullstream
      Hlt2TrackEffDiMuonVeloMuonMinusMatchedFullstream
      Hlt2TrackEffDiMuonVeloMuonMinusTaggedFullstream
      Hlt2TrackEffDiMuonVeloMuonPlusMatchedFullstream
      Hlt2TrackEffDiMuonVeloMuonPlusTaggedFullstream
RB_79 
   HLT2 (HLT_PASS_RE('Hlt2.*Incl.*HHX.*Decision')):
RB_80 
   HLT2 (HLT_PASS_RE('Hlt2.*Electron.*Decision')):
RB_81 
   HLT2 (HLT_PASS_RE('Hlt2Topo.*2Body.*Decision')):
RB_82 
   HLT2 (HLT_PASS_RE('Hlt2Topo.*3Body.*Decision')):
RB_83 
   HLT2 (HLT_PASS_RE('Hlt2Topo.*4Body.*Decision')):
RB_84 LOWMULT
   HLT2 (HLT_PASS_RE('Hlt2TopoMu[234]Body.*Decision')):
RB_85 
   HLT2 (HLT_PASS_RE('Hlt2TopoE[234]Body.*Decision')):
RB_86 BEAMGAS
   HLT2 (HLT_PASS_RE('Hlt2Topo[234]Body.*Decision')):
RB_87 FULL
   HLT2 (HLT_PASS('Hlt2BBPassThroughDecision') | HLT_PASS_RE('^Hlt2(LumiRandom|LumiLowBeamCrossing|LumiLowBeam1Prescaled|LumiLowBeam2|LumiLowNoBeam)Decision$')):
      Hlt2BBPassThrough
      Hlt2LumiLowBeam1Prescaled
      Hlt2LumiLowBeam2
      Hlt2LumiLowBeamCrossing
      Hlt2LumiLowNoBeam
      Hlt2LumiRandom
RB_91 NOBIAS
   HLT2 (HLT_PASS_RE('^Hlt2BE(?!SelectVeloMult).*PassThroughDecision$') | HLT_PASS_RE('^Hlt2(LumiRandom|LumiLowBeam1|LumiLowBeam2|LumiLowNoBeam)Decision$')):
      Hlt2BEHighMultPassThrough
      Hlt2BEL0PassThrough
      Hlt2BELowMultVeloPassThrough
      Hlt2BEMicroBiasVeloPassThrough
      Hlt2LumiLowBeam1
      Hlt2LumiLowBeam2
      Hlt2LumiLowNoBeam
      Hlt2LumiRandom
RB_92 
   HLT2 (HLT_PASS_RE('^Hlt2(PIDD02KPiTagTurboCalib|PIDLambda2PPiLLTurboCalib|PIDDetJPsiMuMuPosTaggedTurboCalib|PIDDetJPsiMuMuNegTaggedTurboCalib|PIDLambda2PPiLLhighPTTurboCalib|PIDLambda2PPiLLveryhighPTTurboCalib|DiMuonDetachedJPsi)Decision$')):
RB_93 SMOGPHYS
   HLT2 (HLT_PASS_RE('^Hlt2(?!B[BE].*PassThrough)(?!BeamGasPassThrough)(?!Lumi).*Decision$') | HLT_PASS('Hlt2BESelectVeloMultPassThroughDecision') | HLT_PASS_RE('^Hlt2(LumiRandom|LumiLowBeam1|LumiLowBeam2|LumiLowNoBeam)Decision$')):
      Hlt2BESelectVeloMultPassThrough
      Hlt2DiMuonPassThrough
      Hlt2LumiLowBeam1
      Hlt2LumiLowBeam2
      Hlt2LumiLowNoBeam
      Hlt2LumiRandom
      Hlt2NoBiasNonBeamBeam
      Hlt2PIDB2KJPsiEENegTagged
      Hlt2PIDB2KJPsiEEPosTagged
      Hlt2PIDB2KJPsiMuMuNegTagged
      Hlt2PIDB2KJPsiMuMuPosTagged
      Hlt2PIDB2KJPsiPPNegTagged
      Hlt2PIDB2KJPsiPPPosTagged
      Hlt2PIDD02KPiPiPi
      Hlt2PIDD02KPiPiPiTag
      Hlt2PIDD02KPiTag
      Hlt2PIDDetJPsiEENegTagged
      Hlt2PIDDetJPsiEEPosTagged
      Hlt2PIDDetJPsiMuMuNegTagged
      Hlt2PIDDetJPsiMuMuPosTagged
      Hlt2PIDDetJPsiPPNegTagged
      Hlt2PIDDetJPsiPPPosTagged
      Hlt2PIDDetPhiKKNegTagged
      Hlt2PIDDetPhiKKPosTagged
      Hlt2PIDDetPhiKKUnbiased
      Hlt2PIDDetPhiMuMuNegTagged
      Hlt2PIDDetPhiMuMuPosTagged
      Hlt2PIDDs2PiPhiKKNegTagged
      Hlt2PIDDs2PiPhiKKPosTagged
      Hlt2PIDDs2PiPhiKKUnbiased
      Hlt2PIDDs2PiPhiMuMuNegTagged
      Hlt2PIDDs2PiPhiMuMuPosTagged
      Hlt2PIDKs2PiPiLL
      Hlt2PIDLambda2PPiLL
      Hlt2PIDLambda2PPiLLhighPT
      Hlt2PIDLambda2PPiLLisMuon
      Hlt2PIDLambda2PPiLLveryhighPT
      Hlt2PIDLb2LcMuNu
      Hlt2PIDLb2LcPi
      Hlt2PIDSc02LcPi
      Hlt2PIDScpp2LcPi
      Hlt2SMOGB2PiMu
      Hlt2SMOGD02KPi
      Hlt2SMOGDpm2KPiPi
      Hlt2SMOGDs2KKPi
      Hlt2SMOGLc2KPPi
      Hlt2TrackEffDiMuonDownstreamMinusMatchedFullstream
      Hlt2TrackEffDiMuonDownstreamMinusTaggedFullstream
      Hlt2TrackEffDiMuonDownstreamPlusMatchedFullstream
      Hlt2TrackEffDiMuonDownstreamPlusTaggedFullstream
      Hlt2TrackEffDiMuonMuonTTMinusMatchedFullstream
      Hlt2TrackEffDiMuonMuonTTMinusTaggedFullstream
      Hlt2TrackEffDiMuonMuonTTPlusMatchedFullstream
      Hlt2TrackEffDiMuonMuonTTPlusTaggedFullstream
      Hlt2TrackEffDiMuonVeloMuonMinusMatchedFullstream
      Hlt2TrackEffDiMuonVeloMuonMinusTaggedFullstream
      Hlt2TrackEffDiMuonVeloMuonPlusMatchedFullstream
      Hlt2TrackEffDiMuonVeloMuonPlusTaggedFullstream
      Hlt2Transparent
